<svg width="512" height="512" viewBox="0 0 512 512" fill="none" xmlns="http://www.w3.org/2000/svg">
<path d="M32 432C32 458.5 53.49 480 80 480H432C458.51 480 480 458.51 480 432V160H32V432ZM160 236C160 229.4 165.4 224 172 224H340C346.6 224 352 229.4 352 236V244C352 250.6 346.6 256 340 256H172C165.4 256 160 250.6 160 244V236ZM480 32H32C14.31 32 0 46.31 0 64V112C0 120.8 7.188 128 16 128H496C504.8 128 512 120.8 512 112V64C512 46.31 497.7 32 480 32Z" fill="white"/>
</svg>
