<svg width="512" height="466" viewBox="0 0 512 466" fill="none" xmlns="http://www.w3.org/2000/svg">
<path d="M424.1 264C408.97 248.88 384 259.574 384 280.97V329H336L153.6 85.8C147.6 77.8 138.1 73 128 73H32C14.31 73 0 87.3 0 105C0 122.7 14.31 137 32 137H112L294.4 380.2C300.4 388.3 309.9 393 320 393H383.97V440.94C383.97 462.33 409.83 473.06 424.96 457.94L504.06 377.96C513.447 368.573 513.447 353.37 504.06 343.99L424.1 264ZM336 137H383.97V185.03C383.97 206.42 409.84 217.12 424.07 202L503.17 122.02C512.557 112.629 512.555 97.43 503.169 88.05L424.069 8.06997C408.939 -7.05003 383.079 3.67897 383.079 25.07V73H320C309.94 73 300.44 77.75 294.41 85.81L254 139.7L293.1 193L336 137ZM112 329H32C14.31 329 0 343.31 0 361C0 378.69 14.31 393 32 393H128C138.06 393 147.56 388.25 153.59 380.19L193.99 326.32L154 273L112 329Z" fill="white"/>
</svg>
